{
  "type": "tab",
  "id": "4f3d21a7.5ba0a8",
  "label": "June kettle",
  "flow": [
    {
      "id": "f2662883.bb41f",
      "type": "mqtt-broker",
      "z": "4f3d21a7.5ba0a8",
      "broker": "realtime.ngi.ibm.com",
      "port": "1883",
      "clientid": "",
      "usetls": false,
      "verifyservercert": true,
      "compatmode": true,
      "keepalive": "30",
      "cleansession": true,
      "willTopic": "",
      "willQos": "0",
      "willRetain": null,
      "willPayload": "",
      "birthTopic": "",
      "birthQos": "0",
      "birthRetain": null,
      "birthPayload": ""
    },
    {
      "id": "3a3e6b86.0936fc",
      "type": "twitter-credentials",
      "z": "4f3d21a7.5ba0a8",
      "screen_name": "@andy_house"
    },
    {
      "id": "978923e0.c8bcd",
      "type": "mqtt-broker",
      "z": "4f3d21a7.5ba0a8",
      "broker": "sm.mqtt.org",
      "port": "1885",
      "clientid": "",
      "usetls": false,
      "verifyservercert": true,
      "compatmode": true,
      "keepalive": "15",
      "cleansession": true,
      "willTopic": "",
      "willQos": "0",
      "willRetain": null,
      "willPayload": "",
      "birthTopic": "",
      "birthQos": "0",
      "birthRetain": null,
      "birthPayload": ""
    },
    {
      "id": "5b12ebc3.d6ecfc",
      "type": "debug",
      "z": "4f3d21a7.5ba0a8",
      "name": "",
      "active": true,
      "console": "false",
      "complete": "false",
      "x": 550,
      "y": 321,
      "wires": []
    },
    {
      "id": "5773cd78.c58ffc",
      "type": "mqtt in",
      "z": "4f3d21a7.5ba0a8",
      "name": "June's kettle",
      "topic": "sm02/382C874346C65715E1DD0F8145AB4B225C277811/4/1",
      "broker": "978923e0.c8bcd",
      "x": 148,
      "y": 237,
      "wires": [
        [
          "7bd13f13.5b56b8"
        ]
      ]
    },
    {
      "id": "ad1cb38a.43bd5",
      "type": "inject",
      "z": "4f3d21a7.5ba0a8",
      "name": "midnight",
      "topic": "reset",
      "payload": "reset",
      "payloadType": "string",
      "repeat": "",
      "crontab": "01 00 * * *",
      "once": false,
      "x": 161,
      "y": 91,
      "wires": [
        [
          "da1a4a48.2727c8"
        ]
      ]
    },
    {
      "id": "360f00df.5b08b",
      "type": "trigger",
      "z": "4f3d21a7.5ba0a8",
      "op1": "green",
      "op2": "0",
      "op1type": "pay",
      "op2type": "val",
      "duration": "0",
      "extend": false,
      "units": "ms",
      "name": "one-shot",
      "x": 690,
      "y": 177,
      "wires": [
        []
      ]
    },
    {
      "id": "8f56ef1f.31979",
      "type": "change",
      "z": "4f3d21a7.5ba0a8",
      "name": "reset",
      "rules": [
        {
          "t": "set",
          "p": "reset",
          "to": "true"
        }
      ],
      "action": "",
      "property": "",
      "from": "",
      "to": "",
      "reg": false,
      "x": 524,
      "y": 130,
      "wires": [
        [
          "360f00df.5b08b"
        ]
      ]
    },
    {
      "id": "7bd13f13.5b56b8",
      "type": "switch",
      "z": "4f3d21a7.5ba0a8",
      "name": "on?",
      "property": "payload",
      "rules": [
        {
          "t": "gt",
          "v": "2000"
        }
      ],
      "checkall": "true",
      "outputs": 1,
      "x": 378,
      "y": 239,
      "wires": [
        [
          "9a2089f0.5fdb8",
          "5b12ebc3.d6ecfc"
        ]
      ]
    },
    {
      "id": "8cad1d34.20ef28",
      "type": "change",
      "z": "4f3d21a7.5ba0a8",
      "name": "black",
      "rules": [
        {
          "t": "set",
          "p": "payload",
          "to": "black"
        }
      ],
      "action": "",
      "property": "",
      "from": "",
      "to": "",
      "reg": false,
      "x": 673,
      "y": 67,
      "wires": [
        []
      ]
    },
    {
      "id": "df3bcfd1.9e1b98",
      "type": "inject",
      "z": "4f3d21a7.5ba0a8",
      "name": "10am",
      "topic": "",
      "payload": "red",
      "payloadType": "date",
      "repeat": "",
      "crontab": "00 10 * * *",
      "once": false,
      "x": 159,
      "y": 174,
      "wires": [
        [
          "2eef3369.a9ac64"
        ]
      ]
    },
    {
      "id": "9a2089f0.5fdb8",
      "type": "change",
      "z": "4f3d21a7.5ba0a8",
      "name": "green",
      "rules": [
        {
          "t": "set",
          "p": "payload",
          "to": "green"
        }
      ],
      "action": "",
      "property": "",
      "from": "",
      "to": "",
      "reg": false,
      "x": 527,
      "y": 239,
      "wires": [
        [
          "360f00df.5b08b"
        ]
      ]
    },
    {
      "id": "2eef3369.a9ac64",
      "type": "change",
      "z": "4f3d21a7.5ba0a8",
      "name": "red",
      "rules": [
        {
          "t": "set",
          "p": "payload",
          "to": "red"
        }
      ],
      "action": "",
      "property": "",
      "from": "",
      "to": "",
      "reg": false,
      "x": 408,
      "y": 175,
      "wires": [
        [
          "360f00df.5b08b"
        ]
      ]
    },
    {
      "id": "e34f8587.cb2a",
      "type": "inject",
      "z": "4f3d21a7.5ba0a8",
      "name": "start",
      "topic": "",
      "payload": "",
      "payloadType": "date",
      "repeat": "",
      "crontab": "",
      "once": true,
      "x": 160,
      "y": 50,
      "wires": [
        [
          "da1a4a48.2727c8"
        ]
      ]
    },
    {
      "id": "e3872bb4.674e58",
      "type": "switch",
      "z": "4f3d21a7.5ba0a8",
      "name": "not up?!",
      "property": "payload",
      "rules": [
        {
          "t": "eq",
          "v": "red"
        }
      ],
      "checkall": "true",
      "outputs": 1,
      "x": 767,
      "y": 289,
      "wires": [
        [
          "9d0c79a0.d9f7b"
        ]
      ]
    },
    {
      "id": "9d0c79a0.d9f7b",
      "type": "change",
      "z": "4f3d21a7.5ba0a8",
      "name": "message",
      "rules": [
        {
          "t": "set",
          "p": "payload",
          "to": "d andysc June hasn't had a cuppa yet!"
        }
      ],
      "action": "",
      "property": "",
      "from": "",
      "to": "",
      "reg": false,
      "x": 921,
      "y": 288,
      "wires": [
        [
          "d6f91d3.713b6e",
          "29b6fda3.0815b2"
        ]
      ]
    },
    {
      "id": "d6f91d3.713b6e",
      "type": "twitter out",
      "z": "4f3d21a7.5ba0a8",
      "twitter": "3a3e6b86.0936fc",
      "name": "Tweet",
      "x": 1016,
      "y": 358,
      "wires": []
    },
    {
      "id": "29b6fda3.0815b2",
      "type": "debug",
      "z": "4f3d21a7.5ba0a8",
      "name": "",
      "active": true,
      "console": "false",
      "complete": "false",
      "x": 1108,
      "y": 288,
      "wires": []
    },
    {
      "id": "da1a4a48.2727c8",
      "type": "function",
      "z": "4f3d21a7.5ba0a8",
      "name": "mux",
      "func": "\nreturn msg;",
      "outputs": 1,
      "noerr": 0,
      "x": 343,
      "y": 67,
      "wires": [
        [
          "8cad1d34.20ef28",
          "8f56ef1f.31979"
        ]
      ]
    },
    {
      "id": "bbae8bcc.4022a",
      "type": "inject",
      "z": "4f3d21a7.5ba0a8",
      "name": "",
      "topic": "",
      "payload": "3000",
      "payloadType": "string",
      "repeat": "",
      "crontab": "",
      "once": false,
      "x": 165,
      "y": 304,
      "wires": [
        [
          "7bd13f13.5b56b8"
        ]
      ]
    },
    {
      "id": "d4d82ff1.936d2",
      "type": "inject",
      "z": "4f3d21a7.5ba0a8",
      "name": "",
      "topic": "",
      "payload": "red",
      "payloadType": "string",
      "repeat": "",
      "crontab": "",
      "once": false,
      "x": 152,
      "y": 471,
      "wires": [
        [
          "ec07cb59.ae76d"
        ]
      ]
    },
    {
      "id": "ec07cb59.ae76d",
      "type": "trigger",
      "z": "4f3d21a7.5ba0a8",
      "op1": "green",
      "op2": "0",
      "op1type": "pay",
      "op2type": "val",
      "duration": "0",
      "extend": false,
      "units": "ms",
      "name": "one-shot",
      "x": 553,
      "y": 508,
      "wires": [
        [
          "54cd273b.4428"
        ]
      ]
    },
    {
      "id": "fb4cfdb0.6fcc48",
      "type": "inject",
      "z": "4f3d21a7.5ba0a8",
      "name": "",
      "topic": "",
      "payload": "green",
      "payloadType": "string",
      "repeat": "",
      "crontab": "",
      "once": false,
      "x": 153,
      "y": 526,
      "wires": [
        [
          "ec07cb59.ae76d"
        ]
      ]
    },
    {
      "id": "df71047e.18e9e",
      "type": "inject",
      "z": "4f3d21a7.5ba0a8",
      "name": "clear",
      "topic": "",
      "payload": "",
      "payloadType": "date",
      "repeat": "",
      "crontab": "",
      "once": true,
      "x": 153,
      "y": 420,
      "wires": [
        [
          "bd9467de.0ba44"
        ]
      ]
    },
    {
      "id": "bd9467de.0ba44",
      "type": "change",
      "z": "4f3d21a7.5ba0a8",
      "name": "reset",
      "rules": [
        {
          "t": "set",
          "p": "reset",
          "to": "true"
        }
      ],
      "action": "",
      "property": "",
      "from": "",
      "to": "",
      "reg": false,
      "x": 357,
      "y": 417,
      "wires": [
        [
          "ec07cb59.ae76d"
        ]
      ]
    },
    {
      "id": "54cd273b.4428",
      "type": "debug",
      "z": "4f3d21a7.5ba0a8",
      "name": "",
      "active": true,
      "console": "false",
      "complete": "false",
      "x": 762,
      "y": 505,
      "wires": []
    }
  ]
}